﻿chdGendr,chdAgeY,ytr_flag,YTR1A,YTR2A,YTR3A,YTR4A,YTR5A,YTR6A,YTR7A,YTR8A,YTR9A,YTR10A,trauma
1,10,1,2,2,3,2,2,1,1,2,2,4,21
1,11,1,1,1,1,1,1,1,1,1,1,1,10
1,11,1,2,2,2,2,4,1,1,2,2,4,22
1,15,1,1,1,2,1,1,1,1,1,1,1,11
1,8,1,3, , , ,2,1,1,1,1,3, 
0,9,1,1,1,1,3,2,2,3,1,1,2,17
1,13,1,2,2,1,2,2,1,1,2,2,2,17
0,14,1,2,3,3,2,4,2,2,2,3,4,27
1,10,1,1,1,1,2,1,1,1,1,2,2,13
0,14,1,1,2,2,1,2,1,2,1,1,2,15
0,9,1,1,1,2,1,1,1,1,1,2,1,12
0,8,1,1,1,4,1,1,1,1,2,1,2,15
1,14,1,2,2,2,4,2,2,1,1,1,3,20
1,13,1, , , , , , , , , , , 
0,8,1,2,3,2, ,3,1,1,1,1,1, 
0,15,1,1,1,1,1,2,1,1,1,1,2,12
0,14,1,2,1,4,2,4,4,2,4,4,4,31
0,10,1,1,2,2,3,4,2,1,2,2,4,23
0,9,1,2,1,1,2,1,1,1,1,1,1,12
1,10,1,2,1,2,1,2,1,1,1,1,2,14
0,9,1,2,4,1,1,2,1,1,2,2,3,19
0,13,1,1,1,1, ,2,1,1,1,2,2, 
1,11,1,2,1,2,2,1,2,2,1,2,4,19
0,12,1,1,2,2,4,1,1,1,3,2,2,19
0,13,1,1,1,2,1,2,1,1,2,2,2,15
0,8,1,2,3,2,3,4,1,1,3,4,4,27
1,10,1,1,1,2,1,1,1,1,1,2,2,13
1,13,1,2,2,2,2,3,2,2,2,2,3,22
1,14,1,2,1,2,1,1,1,1,1,1,1,12
1,13,1,1,1,2,1,2,1,2,1,2,1,14
1,10,1,1,1,2,1,1,1,1,1,1,1,11
1,12,1,1,2,2,3,4,1,2,1,2,4,22
0,7,1,1,1,2,2,1,2,1,1,2,4,17
0,9,1,2,1,3, ,1,1,1,1,2,4, 
0,9,1,2,2,2,1,2,2,1,2,2,4,20
1,15,1,1,1,2,1,1,1,1,1,1,2,12
1,13,1,1,1,2,3,2,2,1,2,3,3,20
0,14,1,2,1,3,3,3,2,1,3,4,4,26
0,11,1,1,2,2,2,2,1,1,1,2,4,18
1,10,1,2,2,2,2,2,2,1,2,2,3,20
0,9,1,2,2,2,1,2,1,1,1,1,1,14
0,14,1,2,1,1,1,1,1,1,1,4,2,15
1,8,1,2,2,2,1,2,1,1,2,2,1,16
1,15,1, , , , , , , , , , , 
0,14,1,2,3,4,2,3,2,2,4,4,2,28
1,11,1,2,1,1,1,1,1,1,1,1,4,14
1,14,1,1,3,2,1,3,1,1,1,1,3,17
1,13,1,1,3,3,1,2,3,1,2,2,4,22
1,11,1,2,2,2,1,1,1,1,2,3,3,18
0,13,1,1,1,2,1,1,3,1,1,1,2,14
1,12,1,1,1,1,1,1,1,1,1,1,1,10
0,15,1,1,1,2,2,1,1,1,2,2,3,16
0,8,1,3,1,2,3,1,1,1,1,1,2,16
1,8,1,2,3,3,3,3,3,3,4,4,3,31
1,9,1,1,2,4,1,2,2,1,2,3,4,22
0,8,1,1,1,1,1,2,1,1,1,2,1,12
1,11,1,1,2,4,1,4,4,1,4,4,4,29
1,12,1,1,1,1,1,1,1,1,1,1,1,10
0,10,1,2,2,3,3,3,1,1,3,4,3,25
1,14,1,1,1,2,4,4,1,1,1,3,2,20
1,14,1,1,1,2,1,1,1,1,1,1,2,12
0,10,1,2,3,2,2,3,4,1,4,4,4,29
1,14,1,1,1,1,1,1,1,1,1,1,2,11
1,14,1,2,2,4,3,1,1,1,1,1,1,17
1,12,1,2,2,1,3,1,1,1,1,2,1,15
1,14,1,2,2,1, ,2,1,2,1,1,1, 
0,9,1,1,1,2,2,2,1,1,1,1,1,13
0,14,1,2,1,2,1,1,2,1,2,2,3,17
1,13,1,1,1,1,1,1,1,1,1,1,4,13
1,11,1,1,1,1,4,1,1,1,1,2,3,16
0,12,1,2,2,1,1,1,2,1,3,4,4,21
1,14,1,2,2,2,3,3,2,1,2,2,4,23
1,11,1,2,1,2,2,2,2,3,1,2,4,21
1,14,1,1,1,2, ,1,1,1,2,1,2, 
0,10,1,1,1,1,1,1,1,1,1,1,1,10
1,13,1,1,1,1,1,1,1,1,1,1,1,10
0,7,1,2,4,2,2,2,2,2,2,2,4,24
0,11,1,1,1,2,1,2,1,1,2,1,3,15
1,14,1,2,1,4,3,2,4,1,3,3,4,27
0,15,1,1,1,1,1,2,1,1,1,2,4,15
0,15,1,1,3,3,1,2,1,1,3,3,4,22
0,13,1,3,2,1,2,2,3,1,1,2,4,21
1,10,1,1,1,1,1,1,1,1,1,1,4,13
0,13,1,4,3,3,3,3,4,1,2,3,4,30
0,13,1,2,1,3,3,2,1,1,2,2,4,21
1,10,1,2,1,2,2,2,4,2,2,2,2,21
0,8,1,4,4,1,1,1,1,1,2,1,2,18
0,14,1,1,1,1,2,1,1,1,1,1,1,11
1,11,1,1,1,1,1,1,1,1,1,1,1,10
1,13,1,2,2,3,4,4,1,1,1,2,4,24
1,11,1,1,1,1,1,1,1,1,1,1,1,10
0,9,1,3,1,2,1,1,1,1,2,3,4,19
1,14,1,2,2,3,2,3,1,1,2,1,3,20
1,15,1,2,1,1,1,1,1,1,1,1,1,11
1,11,1,3,1,3,1,3,1,1,2,1,1,17
0,15,1,1,1,2,1,1,4,2,4,4,4,24
1,8,1,1,1,1,1,1,1,1,1,1,1,10
0,14,1,1,1,1,1,1,1,1,1,1,1,10
0,13,1,2,1,3,2,2,1,1,2,2,1,17
1,14,1,1,1,1,1,1,1,1,1,1,1,10
0,9,1,1,1,2,1,1,1,1,1,2,1,12
1,8,1,1,1,1,1,1,1,1,1,1,2,11
1,12,1,3,4,3,1,3,1,1,4,1,2,23
1,13,1,2,2,3,2,2,1,1,2,2,2,19
0,12,1,2,3,4,4,4,4,1,4,4,3,33
0,13,1,1,2,2,3,1,3,1,1,1,1,16
1,14,1,1,2,2,1,2,1,1,4,2,4,20
1,9,1,2,2,2,3,2,2,1, ,2,4, 
0,15,1,2,2,2,2,2,1,1,1,1,4,18
1,11,1,2,3,4,3,4,1,1,4,4,4,30
0,13,1,1,2,2,1,2,4,1,1,2,4,20
1,10,1,2,2,2,2,2,2,1,1,1,3,18
0,10,1,2,2,2,2,2,2,2,2,2,2,20
1,10,1,2,1,1,1,1,1,1,1,1,4,14
1,9,1,1,1,3,2,2,1,1,2,2,2,17
1,13,1,1,1,2,3,2,1,1,1,1,3,16
1,13,1,2,2,1,1,1,1,1,1,1,1,12
1,12,1,2,3,4,2,3,1,1,2,2,2,22
0,15,1,2,2,2,2,2,2,1,2,2,4,21
1,14,1,1,1,2,1,1,1,1,1,1,1,11
0,11,1,2,1,2,2,1,1,1,1,1,2,14
1,10,1,2,1,2,1,2,1,1,1,2,1,14
0,10,1, , , , , , , , , , , 
1,13,1,1,1,2,1,1,1,1,1,2,2,13
1,13,1,3,2,3,2,2,1,1,1,1,4,20
0,9,1,3,4,4,4,4,4,3,4,4,3,37
0,9,1, , , , , , , , , , , 
0,8,1,3,2,4,1,2,3,2,2,2,1,22
1,14,1,2,1,3,4,2,1,1,2,3,3,22
0,9,1,3,3,1,2,4,4,1,3,1,1,23
1,13,1,2,1,2,2,2,1,1,1,2,2,16
1,9,1,1,1,2,2,3,1,1,2,2,4,19
0,15,1,2,2,3,4,3,2,1,3,3,3,26
1,11,1,1,1,1,1,1,1,1,1,1,1,10
0,14,1,1,1,2,1,1,1,1,1,2,2,13
1,15,1,1,1,1,1,1,1,1,1,1,1,10
0,15,1,2,2,1,2,2,1,1,2,2,2,17
1,14,1,2,2,2,2,2,2,1,1,2,4,20
1,8,1,1,1,2,3,1,1,1,4,1,1,16
0,9,1,2,1,2,2,2,1,1,2,1,2,16
1,12,1,1,1,2,3,4,1,1,2,2,4,21
0,12,1,2,1,2,1,2,1,1,2,2,4,18
0,13,1,1,1,2,3,1,1,1,2,4,2,18
1,12,1,2,1,1,2,1,1,1,1,1,3,14
0,9,1,1,2,1,1,2,2,1,2,2,1,15
0,8,1,3,3,2,2,4,4,1,2,2,2,25
0,9,1,1,1,1,1,1,4,1,1,1,2,14
0,12,1,1,1,1,1,1,4,1,1,1,1,13
1,10,1,2, , ,2, ,3,2,4,2,2, 
1,9,1,2,2,2,3,2, ,1,2,3,2, 
0,12,1,1,1,1,1,1,1,1,1,1,1,10
0,9,1,1,3,1,1,2,1,1,2,2,2,16
1,10,1,3,2,2,1,2,2,1,2,3,2,20
0,14,1,1,1,2,1,1,1,1,1,2,1,12
1,14,1,2,1,2,1,2,1,1,1,1,1,13
0,14,1,1,1,1,2,1,1,1,1,1,1,11
1,13,1,1,1,2,2,1,1,1,1,1,4,15
1,10,1,1,1,2,1,1,1,1,1,4,4,17
0,15,1,3,2,3,4,3,1,1,3,4,4,28
0,14,1,3,2,2,1,2,1,1,1,1,3,17
0,10,1,1,2,2,3,2,3,1,2,3,3,22
1,11,1,1,1,2, ,2,4,1,1,1,1, 
0,14,1,2,2,2,1,2,1,1,2,2,2,17
0,14,1,1,1,2,1,2,2,1,2,1,3,16
1,12,1,1,1,2,3,2,1,1,2,2,2,17
1,10,1,2,2,3,1,2,1,1,2,2,1,17
0,13,1,1,1,3,1,2,1,1,1,2,1,14
1,10,1,1,1,1,1,2,1,1,1,1,2,12
0,15,1,2,1,2,1,2,1,1,1,2,4,17
0,8,1,2,2,2,2,2,1,1,1,2,2,17
0,8,1,2,2,2,1,2,1,1,2,2,3,18
1,8,1,3,4,4,4,4,1,1,2,4,1,28
0,8,1,1,1,2,2,2,2,3,1,3,3,20
1,8,1,2,1,2,1,1,2,1,1,1,4,16
1,11,1,1,1,2,4,1,1,1,2,1,4,18
0,12,1,4,4,2,3,1,1,1,1,1,3,21
1,12,1,1,1,2,1,2,1,1,1,2,3,15
1,9,1,1,1,1,1,1,1,1,1,1,2,11
1,10,1,1,1,4,1,1,1,4,1,1,4,19
1,12,1,2,2,2,2,2,1,1,1,2,1,16
0,9,1,2,2,3, ,2,1,1,2,2,2, 
0,14,1,2,1,2,1,1,1,1,1,1,1,12
1,15,1,4,4,4,3,4,4,2,4,4,4,37
0,14,1,1,1,1,3,1,1,1,1,1,4,15
0,9,1,2,1,2,1,2,2,1,1,2,1,15
0,9,1,2,1,4,2,1,2,1,1,2,1,17
1,12,1,1,1,2,1,2,1,1,1,2,1,13
0,12,1,2,2,2,3,2,2,1,2,2,4,22
0,15,1,3,2,1,4,4,1,1,4,4,1,25
0,8,1,4, , , ,4, , ,3,3,4, 
1,14,1,2,2,2,1,1,1,1,1,2,2,15
0,13,1,2,2,2,3,2,1,1,1,2,3,19
0,13,1,1,1,1,1,2,1,1,1,1,1,11
0,13,1,2,3,2,1,3,1,1,1,2,2,18
0,13,1,3,2,2,1,4,4,1,1,4,4,26
1,8,1,3,2,1,1,2,1,1,1,1,1,14
1,13,1,1,1,2,1,1,1,1,1,2,2,13
1,8,1,2,1,2,1,1,1,1,1,2,1,13
1,11,1,2,4,3,4,2,2,2,3,2,4,28
0,8,1,2,1,1,1,1,1,1,1,2,2,13
1,12,1,1,1,1,1,1,1,1,1,1,1,10
1,14,1,1,2,2,3,2,1,1,2,2,4,20
1,8,1,4,4,3,1,4,2,2,4,3,4,31
1,10,1,1,1,2,1,3,1,1,1,1,3,15
0,9,1,1,1, , ,1,1,1,1,2,1, 
0,12,1,3,4,3,2,2,2,2,1,2,4,25
1,9,1,2, , ,1,2,2, , ,2,1, 
0,9,1,2,1,1,1,1,1,1,2,1,1,12
1,13,1,1,1,1,1,1,1,1,1,1,1,10
0,10,1,2,2,2,2,2,2,2,3,3,4,24
1,8,1,2,4,2,2,4,1,1,4,4,4,28
0,11,1,2,1,2,2,2,1,1,1,1,1,14
0,11,1,1,2,2,2,2,2,1,2,2,2,18
0,11,1,1,2,1,1,1,1,1,1,1,1,11
1,10,1,2,2,2,2,2,2,2,2,2,4,22
1,8,1,1,1,1,1,1,1,1,1,1,1,10
1,14,1,2,1,3,2,3,1,1,4,2,2,21
1,8,1,3,1,1,1,1,1,1,1,1,1,12
0,10,1,2,2,2,2,2,2,1,2,2,2,19
0,14,1,2,2,2,2,2,1,1,4,4,4,24
1,10,1,2,2,2,1,2,3,4,2,3,2,23
1,15,1,2,1,3,3,3,2,2,2,3,4,25
1,8,1,2,1,1,2,1,1,1,1,2,2,14
0,10,1,1,1,4,2,4,4,1,4,4,4,29
0,16,1,2,1,3,1,2,1,1,1,2,4,18
0,14,1,1,1,2,1,1,1,1,1,2,1,12
1,8,1,3,2,3,1,2,1,1,2,2,1,18
1,14,1,2,1,2,2,2,2,2,1,2,2,18
0,9,1,4,4,2,1,2,4,4,2,1,2,26
0,8,1,2,4,2,1,3,4,1,4,2,4,27
1,13,1,1,4,1,1,3,1,1,1,1,3,17
0,11,1,1,1,1,1,1,1,1,2,2,2,13
0,15,1,1,2,2,1,2,1,1,1,2,2,15
0,13,1,2,3,4,3,3,2,1,3,3,4,28
1,15,1,2,2,1,1,1,1,1,1,1,2,13
0,13,1,2,2,2,2,2,2,2,2,2,4,22
1,9,1,1,1,2, ,3,1,1,1,3,4, 
0,10,1,2,1,1,3,2,1,1,4,4,4,23
0,12,1,3,4,4,4,4,2,2,4,4,4,35
1,11,1,1,1,2,1,2,1,1,1,1,1,12
0,11,1,1,1,1,1,2,2,1,2,1,1,13
0,13,1,2,1,2,4,1,1,1,2,2,3,19
0,15,1,1,1, , ,1,1,1, ,3, , 
1,8,1,1,1,2,1,1,1,1,1,2,2,13
1,12,1,1,1,4,1,4,4,2,4,4,4,29
1,9,1,1,2,4,3,2,4,1,4,4,4,29
0,12,1,1,2,2,1,2,1,1,2,2,4,18
0,12,1,1,1,1,1,1,1,1,1,1,1,10
0,9,1,2,2,3,1,2,4,1,2,2,2,21
0,9,1,2,1,1,2,3,2,1,2,1,1,16
1,12,1,2,3,1,1,2,1,1,1,1,1,14
1,12,1,2,2,2,1,2,1,1,2,2,2,17
1,15,1,2,1,1,4,2,1,1,1,1,4,18
0,15,1,2,2,2,2,2,1,1,1,2,2,17
1,9,1,1,2,1,2,2,1,1,2,2,1,15
0,14,1,1,2,2,2,4,1,1,4,4,4,25
0,11,1,1,1,2,1,1,1,1,1,1,2,12
0,11,1,2,1,2,1,2,2,2,1,2,3,18
0,11,1,1,2,1,2,1,1,1,1,1,4,15
1,15,1,1,1,2,1,1,1,1,1,1,2,12
0,11,1,1,1,2,1,1,1,1,2,2,2,14
0,15,1,1,2,2,2,2,1,1,1,3,2,17
1,15,1,1,2,2,1,1,1,1,1,1,1,12
0,11,1,2,2,2,2,2,4,1,2,2,2,21
0,8,1, , , , , , , , , , , 
0,12,1,2,3,3,2,2,2,1,2,3,4,24
0,12,1,1,1,1,1,1,1,1,1,1,1,10
0,11,1,2,1,2,1,1,2,1,1,1,1,13
1,12,1,2,3,2,3,2,1,1,1,2,2,19
1,11,1,2,2,1,1,1,1,1,2,1,2,14
1,11,1,2,2,3,1,2,1,1,2,1,2,17
0,14,1,1,1,4,1,4,1,1,4,1,2,20
0,13,1,1,1,2,2,1,1,1,1,2,2,14
0,12,1,2,1,1,1,1,1,1,1,1,2,12
0,14,1,1,2,2,3,4,1,1,1,4,4,23
1,14,1,2,1,1,1,1,1,1,2,2,2,14
1,14,1,1,3,2,2,2,1,1,1,2,4,19
1,14,1,1,1,2,1,2,1,1,2,2,2,15
0,15,1,1,3,1, ,1,4,4,1,4,4, 
1,11,1,1,1,1,1,1,1,1,1,1,1,10
1,11,1,4,4,2,2,2,2,1,4,3,3,27
1,13,1,1,1,2,3,2,1,1,1,1,4,17
0,13,1,2,2,4,2,2,2,1,3,1,1,20
1,13,1,1,1,1,1,1,1,1,1,1,2,11
1,11,1,2,1,2,2,1,4,1,2,2,4,21
1,12,1,1,1,3,1,2,2,2,4,1,1,18
1,12,1,2,1,1,2,1,1,1,1,1,2,13
